# Blender MTL File: 'None'
# Material Count: 1

newmtl Material
Ns 96.078431
Ka 0.000000 0.000000 0.000000
Kd 0.640000 0.640000 0.640000
Ks 0.500000 0.500000 0.500000
Ni 1.000000
d 1.000000
illum 2
map_Kd C:\Users\Stephen\Documents\Visual Studio 2012\Projects\RT3D\SDL GL Triangle\sky25\right2moon.jpg
